module gitlab.com/ahmetkilic95/cron-jobs

go 1.17

require (
	github.com/go-co-op/gocron v1.13.0
	go.uber.org/zap v1.21.0
)

require (
	github.com/pkg/errors v0.9.1 // indirect
	github.com/robfig/cron/v3 v3.0.1 // indirect
	go.uber.org/atomic v1.7.0 // indirect
	go.uber.org/multierr v1.6.0 // indirect
	golang.org/x/sync v0.0.0-20210220032951-036812b2e83c // indirect
	gopkg.in/yaml.v2 v2.4.0 // indirect
)
